{
    "dumper": {
        "jet_collection": "AntiKt4EMPFlowJets",
        "calibration": {
            "file": "fragments/pflow-calibration.json"
        },
        "selection": {
            "file": "fragments/pflow-selection.json"
        },
        "vertex_collection": "PrimaryVertices",
        "dl2_configs": [],
        "variables": {
            "file": "fragments/pflow-variables-minimal.json",
            "btagging": {
                "chars": [],
                "floats": []
            },
            "jet": {
                "floats": [
                    "GN2v01_pb",
                    "GN2v01_pc",
                    "GN2v01_pu",
                    "GN2v01_ptau"
                ]
            },
            "default_mapping": {
                "file": "fragments/default-mapping.json"
            }
        },

        "tracks": [],
        "truths": [],
        "decorate": {
            "jet_aug": false,
            "btag_jes": false,
            "soft_muon": false,
            "track_sv_info": false
        },
        "btagging_link": "btaggingLink"
    },
    "track_systematics": [],
    "flip_configs": [
        "STANDARD"
    ],
    "jet_systematics": [
    ],
    "jet_sigma": 0.0,
    "track_container": "InDetTrackParticles",
    "decorate_track_truth": false,
    "ip_method": "poor",
    "add_fold_hash": false
}
